[
    {
        "kind": "books#volume",
        "id": "huixCAAAQBAJ",
        "etag": "YNVkRmduUIo",
        "selfLink": "https://www.googleapis.com/books/v1/volumes/huixCAAAQBAJ",
        "volumeInfo": {
            "title": "On the Move",
            "subtitle": "Mein Leben",
            "authors": ["Oliver Sacks"],
            "publisher": "Rowohlt Verlag GmbH",
            "publishedDate": "2015-05-30",
            "description": "Oliver Sacks war der berühmteste Neurologe der Welt. Mit seinen Fallgeschichten hat er uns einen neuen Blick auf Krankheiten und Abweichungen gelehrt: Was bei einem Patienten auf den ersten Blick als Störung erscheint, ermöglicht oft besondere Fähigkeiten der Wahrnehmung. Mit diesem Buch hat Sacks eine von fesselnder Energie getriebene Autobiographie vorgelegt. Ehrlich und anrührend beschreibt er die wichtigsten Stationen seines Lebens – das enge Großbritannien der Nachkriegszeit, das anarchische Kalifornien der frühen Sechziger, schließlich das ewig pulsierende New York. Ob er in der Forschung tätig ist oder in der klinischen Praxis, konstant bleiben die Begeisterung für die Arbeit mit den Patienten und das Schreiben darüber. Gerühmt für seine feinsinnigen Fallgeschichten, analysiert Sacks hier seinen eigenen Fall: Er erzählt von erfüllter und unerfüllter Liebe, der Beziehung zu seiner jüdischen Medizinerfamilie, zeitweiliger Drogensucht und exzessivem Bodybuilding und von unbändigen Glücksgefühlen auf den Road Trips durch die Weiten Nordamerikas. Die Lebensbilanz eines außergewöhnlichen Mediziners – und das Meisterwerk eines großartigen Erzählers.",
            "industryIdentifiers": [
                {
                    "type": "ISBN_13",
                    "identifier": "9783644040816"
                },
                {
                    "type": "ISBN_10",
                    "identifier": "3644040818"
                }
            ],
            "readingModes": {
                "text": true,
                "image": true
            },
            "pageCount": 448,
            "printType": "BOOK",
            "categories": ["Psychology"],
            "maturityRating": "MATURE",
            "allowAnonLogging": true,
            "contentVersion": "1.7.6.0.preview.3",
            "panelizationSummary": {
                "containsEpubBubbles": false,
                "containsImageBubbles": false
            },
            "imageLinks": {
                "smallThumbnail": "http://books.google.com/books/content?id=huixCAAAQBAJ&printsec=frontcover&img=1&zoom=5&edge=curl&source=gbs_api",
                "thumbnail": "http://books.google.com/books/content?id=huixCAAAQBAJ&printsec=frontcover&img=1&zoom=1&edge=curl&source=gbs_api"
            },
            "language": "de",
            "previewLink": "http://books.google.ch/books?id=huixCAAAQBAJ&printsec=frontcover&dq=oliver+sacks&hl=&cd=1&source=gbs_api",
            "infoLink": "https://play.google.com/store/books/details?id=huixCAAAQBAJ&source=gbs_api",
            "canonicalVolumeLink": "https://play.google.com/store/books/details?id=huixCAAAQBAJ"
        },
        "saleInfo": {
            "country": "CH",
            "saleability": "FOR_SALE",
            "isEbook": true,
            "listPrice": {
                "amount": 11,
                "currencyCode": "CHF"
            },
            "retailPrice": {
                "amount": 11,
                "currencyCode": "CHF"
            },
            "buyLink": "https://play.google.com/store/books/details?id=huixCAAAQBAJ&rdid=book-huixCAAAQBAJ&rdot=1&source=gbs_api",
            "offers": [
                {
                    "finskyOfferType": 1,
                    "listPrice": {
                        "amountInMicros": 11000000,
                        "currencyCode": "CHF"
                    },
                    "retailPrice": {
                        "amountInMicros": 11000000,
                        "currencyCode": "CHF"
                    },
                    "giftable": true
                }
            ]
        },
        "accessInfo": {
            "country": "CH",
            "viewability": "PARTIAL",
            "embeddable": true,
            "publicDomain": false,
            "textToSpeechPermission": "ALLOWED_FOR_ACCESSIBILITY",
            "epub": {
                "isAvailable": true,
                "acsTokenLink": "http://books.google.ch/books/download/On_the_Move-sample-epub.acsm?id=huixCAAAQBAJ&format=epub&output=acs4_fulfillment_token&dl_type=sample&source=gbs_api"
            },
            "pdf": {
                "isAvailable": true,
                "acsTokenLink": "http://books.google.ch/books/download/On_the_Move-sample-pdf.acsm?id=huixCAAAQBAJ&format=pdf&output=acs4_fulfillment_token&dl_type=sample&source=gbs_api"
            },
            "webReaderLink": "http://play.google.com/books/reader?id=huixCAAAQBAJ&hl=&printsec=frontcover&source=gbs_api",
            "accessViewStatus": "SAMPLE",
            "quoteSharingAllowed": false
        },
        "searchInfo": {
            "textSnippet": "Oliver Sacks war der berühmteste Neurologe der Welt."
        }
    },
    {
        "kind": "books#volume",
        "id": "kHKUjgEACAAJ",
        "etag": "Ht2WL932Ink",
        "selfLink": "https://www.googleapis.com/books/v1/volumes/kHKUjgEACAAJ",
        "volumeInfo": {
            "title": "Dankbarkeit",
            "authors": ["Oliver Sacks"],
            "publishedDate": "2015-12-04",
            "industryIdentifiers": [
                {
                    "type": "ISBN_10",
                    "identifier": "3498064401"
                },
                {
                    "type": "ISBN_13",
                    "identifier": "9783498064402"
                }
            ],
            "readingModes": {
                "text": false,
                "image": false
            },
            "pageCount": 80,
            "printType": "BOOK",
            "maturityRating": "NOT_MATURE",
            "allowAnonLogging": false,
            "contentVersion": "preview-1.0.0",
            "imageLinks": {
                "smallThumbnail": "http://books.google.com/books/content?id=kHKUjgEACAAJ&printsec=frontcover&img=1&zoom=5&source=gbs_api",
                "thumbnail": "http://books.google.com/books/content?id=kHKUjgEACAAJ&printsec=frontcover&img=1&zoom=1&source=gbs_api"
            },
            "language": "de",
            "previewLink": "http://books.google.ch/books?id=kHKUjgEACAAJ&dq=oliver+sacks&hl=&cd=2&source=gbs_api",
            "infoLink": "http://books.google.ch/books?id=kHKUjgEACAAJ&dq=oliver+sacks&hl=&source=gbs_api",
            "canonicalVolumeLink": "https://books.google.com/books/about/Dankbarkeit.html?hl=&id=kHKUjgEACAAJ"
        },
        "saleInfo": {
            "country": "CH",
            "saleability": "NOT_FOR_SALE",
            "isEbook": false
        },
        "accessInfo": {
            "country": "CH",
            "viewability": "NO_PAGES",
            "embeddable": false,
            "publicDomain": false,
            "textToSpeechPermission": "ALLOWED",
            "epub": {
                "isAvailable": false
            },
            "pdf": {
                "isAvailable": false
            },
            "webReaderLink": "http://play.google.com/books/reader?id=kHKUjgEACAAJ&hl=&printsec=frontcover&source=gbs_api",
            "accessViewStatus": "NONE",
            "quoteSharingAllowed": false
        },
        "searchInfo": {
            "textSnippet": "&quot;In July 2013, Oliver Sacks turned eighty and wrote [a] ... piece in The New York Times about the prospect of old age and the freedom he envisioned for himself in binding together the thoughts and feelings of a lifetime."
        }
    },
    {
        "kind": "books#volume",
        "id": "JsCYDwAAQBAJ",
        "etag": "M9Ows4Ri95g",
        "selfLink": "https://www.googleapis.com/books/v1/volumes/JsCYDwAAQBAJ",
        "volumeInfo": {
            "title": "Alles an seinem Platz",
            "subtitle": "Erste Lieben und letzte Fälle",
            "authors": ["Oliver Sacks"],
            "publisher": "Rowohlt Verlag GmbH",
            "publishedDate": "2019-11-19",
            "description": "Der Neurologe Oliver Sacks ist durch seine Fallgeschichten weltberühmt geworden. Er hat eine neue Form des Verständnisses für seine Patienten entwickelt, indem er deren Eigenheiten nicht als Defekte oder Behinderung abtat, sondern sie in ihrer Besonderheit wahrnahm und beschrieb. Als Sacks 2015 starb, hinterließ er eine Fülle von Aufzeichnungen: Sacks schreibt über Depressionen und Psychosen, über das Tourette-Syndrom und Demenzerkrankungen, Träume und Halluzinationen. Und er gibt Einblicke in seine persönliche Welt, indem er sein Faible für Farngewächse und Gingkobäume beschreibt und von seinem meistgeliebten Sport erzählt: dem ausgiebigen Schwimmen in Seen und Flüssen. Das höchst lesenswerte Vermächtnis eines Autors von Weltrang.",
            "industryIdentifiers": [
                {
                    "type": "ISBN_13",
                    "identifier": "9783644057715"
                },
                {
                    "type": "ISBN_10",
                    "identifier": "3644057710"
                }
            ],
            "readingModes": {
                "text": true,
                "image": true
            },
            "pageCount": 384,
            "printType": "BOOK",
            "categories": ["Psychology"],
            "maturityRating": "NOT_MATURE",
            "allowAnonLogging": false,
            "contentVersion": "1.2.2.0.preview.3",
            "panelizationSummary": {
                "containsEpubBubbles": false,
                "containsImageBubbles": false
            },
            "imageLinks": {
                "smallThumbnail": "http://books.google.com/books/content?id=JsCYDwAAQBAJ&printsec=frontcover&img=1&zoom=5&edge=curl&source=gbs_api",
                "thumbnail": "http://books.google.com/books/content?id=JsCYDwAAQBAJ&printsec=frontcover&img=1&zoom=1&edge=curl&source=gbs_api"
            },
            "language": "de",
            "previewLink": "http://books.google.ch/books?id=JsCYDwAAQBAJ&printsec=frontcover&dq=oliver+sacks&hl=&cd=3&source=gbs_api",
            "infoLink": "https://play.google.com/store/books/details?id=JsCYDwAAQBAJ&source=gbs_api",
            "canonicalVolumeLink": "https://play.google.com/store/books/details?id=JsCYDwAAQBAJ"
        },
        "saleInfo": {
            "country": "CH",
            "saleability": "FOR_SALE",
            "isEbook": true,
            "listPrice": {
                "amount": 21,
                "currencyCode": "CHF"
            },
            "retailPrice": {
                "amount": 21,
                "currencyCode": "CHF"
            },
            "buyLink": "https://play.google.com/store/books/details?id=JsCYDwAAQBAJ&rdid=book-JsCYDwAAQBAJ&rdot=1&source=gbs_api",
            "offers": [
                {
                    "finskyOfferType": 1,
                    "listPrice": {
                        "amountInMicros": 21000000,
                        "currencyCode": "CHF"
                    },
                    "retailPrice": {
                        "amountInMicros": 21000000,
                        "currencyCode": "CHF"
                    },
                    "giftable": true
                }
            ]
        },
        "accessInfo": {
            "country": "CH",
            "viewability": "PARTIAL",
            "embeddable": true,
            "publicDomain": false,
            "textToSpeechPermission": "ALLOWED_FOR_ACCESSIBILITY",
            "epub": {
                "isAvailable": true,
                "acsTokenLink": "http://books.google.ch/books/download/Alles_an_seinem_Platz-sample-epub.acsm?id=JsCYDwAAQBAJ&format=epub&output=acs4_fulfillment_token&dl_type=sample&source=gbs_api"
            },
            "pdf": {
                "isAvailable": true,
                "acsTokenLink": "http://books.google.ch/books/download/Alles_an_seinem_Platz-sample-pdf.acsm?id=JsCYDwAAQBAJ&format=pdf&output=acs4_fulfillment_token&dl_type=sample&source=gbs_api"
            },
            "webReaderLink": "http://play.google.com/books/reader?id=JsCYDwAAQBAJ&hl=&printsec=frontcover&source=gbs_api",
            "accessViewStatus": "SAMPLE",
            "quoteSharingAllowed": false
        },
        "searchInfo": {
            "textSnippet": "Der Neurologe Oliver Sacks ist durch seine Fallgeschichten weltberühmt geworden."
        }
    },
    {
        "kind": "books#volume",
        "id": "05crEAAAQBAJ",
        "etag": "iZLOA+sBhME",
        "selfLink": "https://www.googleapis.com/books/v1/volumes/05crEAAAQBAJ",
        "volumeInfo": {
            "title": "Oliver Sacks",
            "subtitle": "Ein persönliches Porträt",
            "authors": ["Lawrence Weschler"],
            "publisher": "Rowohlt Verlag GmbH",
            "publishedDate": "2021-07-20",
            "description": "Er war ein großartiger Arzt, und ein begnadeter Erzähler: Mit seinen Fallgeschichten hat Oliver Sacks Millionen Lesern ein neues, anderes Bild von Krankheit vermittelt. Voller Empathie und mit großer Fachkenntnis hat Sacks immer wieder Menschen beschrieben, deren Leben durch eine schwere Krankheit oder Behinderung geprägt wurde – und die unser Interesse und Mitgefühl verdienen. Schon 1981, als Sacks noch weitgehend unbekannt war, beschloss der Journalist Lawrence Weschler, die Biographie von Oliver Sacks zu schreiben. Er konnte ihn bei seiner täglichen Arbeit als Arzt erleben, begleitete ihn auf Reisen und führte zahlreiche intensive Gespräche mit ihm. Auf dieser Grundlage entstand eine sehr persönliche Nahaufnahme. Weschler erzählt ausführlich von der Entstehung der ersten Sacks-Bücher, die zu Bestsellern wurden, und verfolgt den Weg des Autors Oliver Sacks bis zu dessen Tod im Jahre 2015. Das einzigartige Porträt eines empathischen Menschenfreundes und Seelenforschers, der unser Bild von Krankheit und Gesundheit nachhaltig verändert hat.",
            "industryIdentifiers": [
                {
                    "type": "ISBN_13",
                    "identifier": "9783644000445"
                },
                {
                    "type": "ISBN_10",
                    "identifier": "3644000441"
                }
            ],
            "readingModes": {
                "text": true,
                "image": true
            },
            "pageCount": 352,
            "printType": "BOOK",
            "categories": ["Biography & Autobiography"],
            "maturityRating": "NOT_MATURE",
            "allowAnonLogging": false,
            "contentVersion": "1.2.2.0.preview.3",
            "panelizationSummary": {
                "containsEpubBubbles": false,
                "containsImageBubbles": false
            },
            "imageLinks": {
                "smallThumbnail": "http://books.google.com/books/content?id=05crEAAAQBAJ&printsec=frontcover&img=1&zoom=5&edge=curl&source=gbs_api",
                "thumbnail": "http://books.google.com/books/content?id=05crEAAAQBAJ&printsec=frontcover&img=1&zoom=1&edge=curl&source=gbs_api"
            },
            "language": "de",
            "previewLink": "http://books.google.ch/books?id=05crEAAAQBAJ&printsec=frontcover&dq=oliver+sacks&hl=&cd=4&source=gbs_api",
            "infoLink": "https://play.google.com/store/books/details?id=05crEAAAQBAJ&source=gbs_api",
            "canonicalVolumeLink": "https://play.google.com/store/books/details?id=05crEAAAQBAJ"
        },
        "saleInfo": {
            "country": "CH",
            "saleability": "FOR_SALE",
            "isEbook": true,
            "listPrice": {
                "amount": 21,
                "currencyCode": "CHF"
            },
            "retailPrice": {
                "amount": 21,
                "currencyCode": "CHF"
            },
            "buyLink": "https://play.google.com/store/books/details?id=05crEAAAQBAJ&rdid=book-05crEAAAQBAJ&rdot=1&source=gbs_api",
            "offers": [
                {
                    "finskyOfferType": 1,
                    "listPrice": {
                        "amountInMicros": 21000000,
                        "currencyCode": "CHF"
                    },
                    "retailPrice": {
                        "amountInMicros": 21000000,
                        "currencyCode": "CHF"
                    },
                    "giftable": true
                }
            ]
        },
        "accessInfo": {
            "country": "CH",
            "viewability": "PARTIAL",
            "embeddable": true,
            "publicDomain": false,
            "textToSpeechPermission": "ALLOWED_FOR_ACCESSIBILITY",
            "epub": {
                "isAvailable": true,
                "acsTokenLink": "http://books.google.ch/books/download/Oliver_Sacks-sample-epub.acsm?id=05crEAAAQBAJ&format=epub&output=acs4_fulfillment_token&dl_type=sample&source=gbs_api"
            },
            "pdf": {
                "isAvailable": true,
                "acsTokenLink": "http://books.google.ch/books/download/Oliver_Sacks-sample-pdf.acsm?id=05crEAAAQBAJ&format=pdf&output=acs4_fulfillment_token&dl_type=sample&source=gbs_api"
            },
            "webReaderLink": "http://play.google.com/books/reader?id=05crEAAAQBAJ&hl=&printsec=frontcover&source=gbs_api",
            "accessViewStatus": "SAMPLE",
            "quoteSharingAllowed": false
        },
        "searchInfo": {
            "textSnippet": "Schon 1981, als Sacks noch weitgehend unbekannt war, beschloss der Journalist Lawrence Weschler, die Biographie von Oliver Sacks zu schreiben."
        }
    },
    {
        "kind": "books#volume",
        "id": "v5qjPwAACAAJ",
        "etag": "nSxZQknrRSM",
        "selfLink": "https://www.googleapis.com/books/v1/volumes/v5qjPwAACAAJ",
        "volumeInfo": {
            "title": "Der einarmige Pianist",
            "subtitle": "über Musik und das Gehirn",
            "authors": ["Oliver W. Sacks"],
            "publishedDate": "2009",
            "description": "Oliver Sacks ist berühmt für seine brillanten Geschichten, die uns tief in die Welt des menschlichen Geistes und Gehirns führen und unser Verständnis des menschlichen Wesens erweitert haben und dies mit seiner einzigartigen Mischung aus empathischer Erzählkunst, wissenschaftlicher Gelehrsamkeit und dem Blick für das Kuriose. In seinem neuesten Buch erzählt Sacks von Menschen, die nach einer Hirnverletzung ihre Musikalität verlieren, und von anderen, die durch eine solche Verletzung erst Musikalität entwickeln, ja von Musik geradezu besessen sind. Sacks erweist sich wieder als Meister der Menschenbeschreibung und entdeckt an scheinbaren Defekten die besonderen Qualitäten der Menschen wie beim einarmigen Pianisten Paul Wittgenstein, für den die großen Komponisten Benjamin Britten, Paul Hindemith, Richard Strauss und Maurice Ravel eigens Stücke für die linke Hand schrieben. Musik, so zeigt Sacks, hat die einzigartige Kraft, das Gehirn in ganz bemerkenswerter und komplexer Weise zu verändern, und wir Menschen sind eine musikalische Spezies nicht nur eine sprachliche. Musik zieht uns unwiderstehlich in ihren Bann.",
            "industryIdentifiers": [
                {
                    "type": "ISBN_10",
                    "identifier": "3499624257"
                },
                {
                    "type": "ISBN_13",
                    "identifier": "9783499624254"
                }
            ],
            "readingModes": {
                "text": false,
                "image": false
            },
            "pageCount": 444,
            "printType": "BOOK",
            "categories": ["Hirnverletzung - Musikalität"],
            "maturityRating": "NOT_MATURE",
            "allowAnonLogging": false,
            "contentVersion": "preview-1.0.0",
            "imageLinks": {
                "smallThumbnail": "http://books.google.com/books/content?id=v5qjPwAACAAJ&printsec=frontcover&img=1&zoom=5&source=gbs_api",
                "thumbnail": "http://books.google.com/books/content?id=v5qjPwAACAAJ&printsec=frontcover&img=1&zoom=1&source=gbs_api"
            },
            "language": "de",
            "previewLink": "http://books.google.ch/books?id=v5qjPwAACAAJ&dq=oliver+sacks&hl=&cd=5&source=gbs_api",
            "infoLink": "http://books.google.ch/books?id=v5qjPwAACAAJ&dq=oliver+sacks&hl=&source=gbs_api",
            "canonicalVolumeLink": "https://books.google.com/books/about/Der_einarmige_Pianist.html?hl=&id=v5qjPwAACAAJ"
        },
        "saleInfo": {
            "country": "CH",
            "saleability": "NOT_FOR_SALE",
            "isEbook": false
        },
        "accessInfo": {
            "country": "CH",
            "viewability": "NO_PAGES",
            "embeddable": false,
            "publicDomain": false,
            "textToSpeechPermission": "ALLOWED",
            "epub": {
                "isAvailable": false
            },
            "pdf": {
                "isAvailable": false
            },
            "webReaderLink": "http://play.google.com/books/reader?id=v5qjPwAACAAJ&hl=&printsec=frontcover&source=gbs_api",
            "accessViewStatus": "NONE",
            "quoteSharingAllowed": false
        },
        "searchInfo": {
            "textSnippet": "Oliver Sacks ist berühmt für seine brillanten Geschichten, die uns tief in die Welt des menschlichen Geistes und Gehirns führen und unser Verständnis des menschlichen Wesens erweitert haben und dies mit seiner einzigartigen Mischung aus ..."
        }
    }
]
